TIME,OBS,COUNTRY
2010,93.5,CO
2014,96.1,CO
2015,97.2,CO
2016,97.63,CO
2017,96.8,CO
2018,97.8,CO
2019,98.32,CO
2005,72.9,CO
2006,81.2,CO
2007,91,CO
2008,93,CO
2009,92.5,CO
2011,94.6,CO
2012,94.6,CO
2013,94.5,CO