"TIME","OBS","COUNTRY"
"2019","665549","CO"
"2002","97997","CO"
"2003","150710","CO"
"2004","165861","CO"
"2005","212971","CO"
"2006","219845","CO"
"2007","249.135","CO"
"2008","276355","CO"
"2009","306059","CO"
"2010","310000","CO"
"2011","333351","CO"
"2012","367728","CO"
"2013","367848","CO"
"2014","400021","CO"
"2015","408134","CO"
"2016","477239","CO"
"2017","598100","CO"
"2018","624715","CO"

