TIME,OBS,COUNTRY
2001,274.7,CO
2002,259.8,CO
2003,224.3,CO
2004,204.1,CO
2005,266.6,CO
2006,274.4,CO
2007,262.4,CO
2008,242.4,CO
2009,308.2,CO
2010,319.0,CO
2011,332.0,CO
2012,333.8,CO
2013,337.0,CO
2014,282.3,CO
2015,263.1,CO
2016,252.9,CO
2017,234.4,CO
2018,233.0,CO