TIME,OBS,COUNTRY,DES_GEO_DEPTOS,DES_GEO_REGIONES
2018,86.1,CO,,
2018,90.14,,05,
2018,87.71,,08,
2018,87.82,,11,
2018,86.57,,13,
2018,89.61,,15,
2018,93.5,,17,
2018,79.72,,18,
2018,85.32,,19,
2018,85.77,,20,
2018,87.15,,23,
2018,88.02,,25,
2018,66.05,,27,
2018,92.56,,41,
2018,65.42,,44,
2018,82.45,,47,
2018,0,,5,
2018,83.06,,50,
2018,85.09,,52,
2018,83.9,,54,
2018,93.18,,63,
2018,90.18,,66,
2018,90.34,,68,
2018,84.32,,70,
2018,89.63,,73,
2018,90.86,,76,
2018,75.19,,81,
2018,79.32,,85,
2018,81.27,,86,
2018,91.18,,88,
2018,55.41,,91,
2018,30.99,,94,
2018,62.58,,95,
2018,33.84,,97,
2018,33.85,,99,
2005,80.95,CO,,
2006,81.83,CO,,
2007,82.83,CO,,
2008,83.59,CO,,
2009,83.81,CO,,
2010,85.54,CO,,
2011,84.44,CO,,
2012,84.79,CO,,
2013,86.49,CO,,
2014,87.92,CO,,
2015,88.42,CO,,
2016,88.43,CO,,
2017,87.70,CO,,
2005,82.73,,05,
2006,83.46,,05,
2007,84.73,,05,
2008,85.15,,05,
2009,86.08,,05,
2010,88.56,,05,
2011,87.35,,05,
2012,88.19,,05,
2013,90.18,,05,
2014,90.78,,05,
2015,91.24,,05,
2016,91.28,,05,
2017,90.63,,05,
2005,81.42,,08,
2006,79.97,,08,
2007,80.66,,08,
2008,80.47,,08,
2009,81.68,,08,
2010,82.92,,08,
2011,83.55,,08,
2012,81.86,,08,
2013,83.61,,08,
2014,87.21,,08,
2015,88.83,,08,
2016,91.84,,08,
2017,89.97,,08,
2005,86.85,,11,
2006,86.20,,11,
2007,86.43,,11,
2008,85.99,,11,
2009,85.60,,11,
2010,88.03,,11,
2011,85.99,,11,
2012,86.29,,11,
2013,88.31,,11,
2014,89.48,,11,
2015,90.19,,11,
2016,89.53,,11,
2017,88.39,,11,
2005,79.49,,13,
2006,81.53,,13,
2007,82.41,,13,
2008,83.06,,13,
2009,84.11,,13,
2010,86.53,,13,
2011,83.39,,13,
2012,84.35,,13,
2013,86.67,,13,
2014,88.93,,13,
2015,87.97,,13,
2016,87.39,,13,
2017,87.51,,13,
2005,81.63,,15,
2006,83.29,,15,
2007,83.89,,15,
2008,85.05,,15,
2009,85.18,,15,
2010,86.62,,15,
2011,85.05,,15,
2012,86.60,,15,
2013,88.02,,15,
2014,88.98,,15,
2015,90.09,,15,
2016,90.29,,15,
2017,90.01,,15,
2005,85.83,,17,
2006,86.85,,17,
2007,88.09,,17,
2008,88.92,,17,
2009,90.25,,17,
2010,90.62,,17,
2011,89.68,,17,
2012,90.34,,17,
2013,91.83,,17,
2014,92.46,,17,
2015,93.75,,17,
2016,94.08,,17,
2017,93.42,,17,
2005,70.24,,18,
2006,69.20,,18,
2007,68.37,,18,
2008,71.85,,18,
2009,75.03,,18,
2010,73.88,,18,
2011,73.27,,18,
2012,74.83,,18,
2013,77.20,,18,
2014,76.52,,18,
2015,78.56,,18,
2016,77.03,,18,
2017,78.99,,18,
2005,70.65,,19,
2006,73.99,,19,
2007,76.14,,19,
2008,78.68,,19,
2009,78.37,,19,
2010,80.97,,19,
2011,82.64,,19,
2012,82.42,,19,
2013,85.12,,19,
2014,85.91,,19,
2015,86.48,,19,
2016,86.13,,19,
2017,85.36,,19,
2005,78.66,,20,
2006,81.05,,20,
2007,81.94,,20,
2008,83.37,,20,
2009,84.02,,20,
2010,83.92,,20,
2011,85.93,,20,
2012,86.87,,20,
2013,88.74,,20,
2014,89.34,,20,
2015,89.58,,20,
2016,87.75,,20,
2017,86.82,,20,
2005,75.74,,23,
2006,78.10,,23,
2007,79.81,,23,
2008,79.97,,23,
2009,79.46,,23,
2010,84.21,,23,
2011,80.78,,23,
2012,82.32,,23,
2013,84.49,,23,
2014,88.23,,23,
2015,89.14,,23,
2016,88.18,,23,
2017,88.34,,23,
2005,85.61,,25,
2006,85.62,,25,
2007,85.91,,25,
2008,85.74,,25,
2009,85.23,,25,
2010,86.86,,25,
2011,85.04,,25,
2012,86.89,,25,
2013,87.67,,25,
2014,88.16,,25,
2015,89.49,,25,
2016,89.42,,25,
2017,88.40,,25,
2005,63.63,,27,
2006,62.37,,27,
2007,65.37,,27,
2008,67.68,,27,
2009,68.42,,27,
2010,68.99,,27,
2011,70.40,,27,
2012,66.39,,27,
2013,66.14,,27,
2014,64.59,,27,
2015,63.82,,27,
2016,67.61,,27,
2017,68.39,,27,
2005,81.22,,41,
2006,84.90,,41,
2007,87.57,,41,
2008,89.64,,41,
2009,90.84,,41,
2010,90.71,,41,
2011,90.53,,41,
2012,91.14,,41,
2013,91.48,,41,
2014,92.12,,41,
2015,92.14,,41,
2016,91.40,,41,
2017,90.71,,41,
2005,67.06,,44,
2006,69.74,,44,
2007,71.42,,44,
2008,69.90,,44,
2009,72.83,,44,
2010,69.62,,44,
2011,71.15,,44,
2012,75.70,,44,
2013,74.92,,44,
2014,77.09,,44,
2015,75.44,,44,
2016,75.49,,44,
2017,73.23,,44,
2005,77.63,,47,
2006,77.59,,47,
2007,75.65,,47,
2008,79.39,,47,
2009,80.43,,47,
2010,82.72,,47,
2011,81.10,,47,
2012,80.83,,47,
2013,82.23,,47,
2014,83.96,,47,
2015,84.46,,47,
2016,86.39,,47,
2017,85.79,,47,
2005,76.15,,50,
2006,76.54,,50,
2007,78.94,,50,
2008,78.76,,50,
2009,79.35,,50,
2010,79.53,,50,
2011,79.19,,50,
2012,79.76,,50,
2013,81.03,,50,
2014,82.71,,50,
2015,82.79,,50,
2016,82.75,,50,
2017,82.15,,50,
2005,74.72,,52,
2006,75.81,,52,
2007,78.23,,52,
2008,79.78,,52,
2009,79.66,,52,
2010,81.68,,52,
2011,82.94,,52,
2012,83.54,,52,
2013,86.18,,52,
2014,87.08,,52,
2015,87.39,,52,
2016,85.59,,52,
2017,85.50,,52,
2005,74.69,,54,
2006,78.18,,54,
2007,78.18,,54,
2008,82.93,,54,
2009,80.47,,54,
2010,83.94,,54,
2011,81.52,,54,
2012,81.41,,54,
2013,84.24,,54,
2014,86.65,,54,
2015,88.62,,54,
2016,88.04,,54,
2017,88.17,,54,
2005,84.96,,63,
2006,85.73,,63,
2007,87.65,,63,
2008,88.73,,63,
2009,90.49,,63,
2010,91.59,,63,
2011,91.93,,63,
2012,91.86,,63,
2013,94.62,,63,
2014,94.98,,63,
2015,94.76,,63,
2016,94.49,,63,
2017,93.23,,63,
2005,84.78,,66,
2006,85.65,,66,
2007,86.53,,66,
2008,86.72,,66,
2009,87.05,,66,
2010,90.22,,66,
2011,87.75,,66,
2012,87.20,,66,
2013,87.68,,66,
2014,88.45,,66,
2015,89.38,,66,
2016,90.51,,66,
2017,90.57,,66,
2005,83.05,,68,
2006,83.82,,68,
2007,85.59,,68,
2008,88.28,,68,
2009,88.86,,68,
2010,89.63,,68,
2011,89.80,,68,
2012,89.70,,68,
2013,90.81,,68,
2014,92.74,,68,
2015,92.77,,68,
2016,92.59,,68,
2017,92.15,,68,
2005,74.92,,70,
2006,75.67,,70,
2007,77.91,,70,
2008,80.27,,70,
2009,81.63,,70,
2010,82.83,,70,
2011,81.84,,70,
2012,81.85,,70,
2013,82.57,,70,
2014,86.18,,70,
2015,87.63,,70,
2016,88.23,,70,
2017,87.89,,70,
2005,73.43,,73,
2006,75.08,,73,
2007,78.32,,73,
2008,80.53,,73,
2009,82.68,,73,
2010,85.21,,73,
2011,86.03,,73,
2012,87.31,,73,
2013,87.74,,73,
2014,89.29,,73,
2015,89.13,,73,
2016,89.04,,73,
2017,89.49,,73,
2005,85.85,,76,
2006,87.29,,76,
2007,87.85,,76,
2008,88.60,,76,
2009,88.32,,76,
2010,90.51,,76,
2011,89.11,,76,
2012,88.64,,76,
2013,90.64,,76,
2014,91.53,,76,
2015,91.21,,76,
2016,91.52,,76,
2017,91.09,,76,
2005,74.72,,81,
2006,76.06,,81,
2007,78.42,,81,
2008,80.39,,81,
2009,78.73,,81,
2010,79.37,,81,
2011,78.70,,81,
2012,80.68,,81,
2013,83.25,,81,
2014,84.16,,81,
2015,85.53,,81,
2016,84.22,,81,
2017,81.42,,81,
2005,76.23,,85,
2006,77.46,,85,
2007,79.16,,85,
2008,79.88,,85,
2009,76.13,,85,
2010,75.04,,85,
2011,74.30,,85,
2012,70.17,,85,
2013,71.27,,85,
2014,75.56,,85,
2015,78.79,,85,
2016,79.15,,85,
2017,80.60,,85,
2005,68.78,,86,
2006,71.76,,86,
2007,73.13,,86,
2008,74.42,,86,
2009,72.30,,86,
2010,73.33,,86,
2011,72.25,,86,
2012,73.69,,86,
2013,77.30,,86,
2014,80.12,,86,
2015,81.93,,86,
2016,82.79,,86,
2017,83.38,,86,
2005,92.81,,88,
2006,94.44,,88,
2007,92.26,,88,
2008,90.01,,88,
2009,93.23,,88,
2010,91.50,,88,
2011,86.54,,88,
2012,85.04,,88,
2013,88.33,,88,
2014,91.36,,88,
2015,92.53,,88,
2016,91.25,,88,
2017,92.15,,88,
2005,55.66,,91,
2006,54.56,,91,
2007,55.64,,91,
2008,52.63,,91,
2009,48.28,,91,
2010,43.08,,91,
2011,47.73,,91,
2012,53.23,,91,
2013,55.56,,91,
2014,54.84,,91,
2015,54.27,,91,
2016,53.18,,91,
2017,56.28,,91,
2005,45.12,,94,
2006,52,,94,
2007,50.69,,94,
2008,49.36,,94,
2009,43.71,,94,
2010,45.58,,94,
2011,32.43,,94,
2012,37.62,,94,
2013,34.88,,94,
2014,35.00,,94,
2015,25.62,,94,
2016,20.64,,94,
2017,33.41,,94,
2005,61.77,,95,
2006,59.16,,95,
2007,60.83,,95,
2008,61.34,,95,
2009,56.97,,95,
2010,55.82,,95,
2011,53.25,,95,
2012,59.14,,95,
2013,56.98,,95,
2014,60.66,,95,
2015,66.03,,95,
2016,66.84,,95,
2017,65.76,,95,
2005,28.51,,97,
2006,31.08,,97,
2007,25.23,,97,
2008,25.81,,97,
2009,21.03,,97,
2010,21.63,,97,
2011,25.50,,97,
2012,25.57,,97,
2013,30.65,,97,
2014,34.12,,97,
2015,30.00,,97,
2016,38.29,,97,
2017,37.94,,97,
2005,53.73,,99,
2006,54.11,,99,
2007,54.26,,99,
2008,56.18,,99,
2009,50.44,,99,
2010,47.71,,99,
2011,46.52,,99,
2012,37.90,,99,
2013,41.85,,99,
2014,45.45,,99,
2015,40.02,,99,
2016,39.61,,99,
2017,48.42,,99,