TIME,OBS,COUNTRY,DES_GEO_DEPTOS,DES_GEO_REGIONES
2005,20.4,CO,,
2006,20.0,CO,,
2007,19.6,CO,,
2008,19.2,CO,,
2009,18.8,CO,,
2010,18.4,CO,,
2011,17.8,CO,,
2012,17.5,CO,,
2013,17.2,CO,,
2014,17.2,CO,,
2015,17.1,CO,,
2016,16.7961288712,CO,,
2005,16.7,,05,
2006,16.5,,05,
2007,16.3,,05,
2008,16.1,,05,
2009,15.9,,05,
2010,15.7,,05,
2011,15.1,,05,
2012,14.7,,05,
2013,14.6,,05,
2014,14.5,,05,
2015,14.373263332,,05,
2016,14.0939566649,,05,
2005,18.0,,08,
2006,17.8,,08,
2007,17.6,,08,
2008,17.4,,08,
2009,17.2,,08,
2010,17.0,,08,
2011,16.6,,08,
2012,16.4,,08,
2013,16.4,,08,
2014,16.4,,08,
2015,16.4151645179,,08,
2016,15.9710756611,,08,
2005,14.3,,11,
2006,14.1,,11,
2007,13.9,,11,
2008,13.7,,11,
2009,13.6,,11,
2010,13.4,,11,
2011,12.9,,11,
2012,12.6,,11,
2013,12.1,,11,
2014,12.1,,11,
2015,11.729738537,,11,
2016,11.5599681999,,11,
2005,23.8,,13,
2006,23.5,,13,
2007,23.1,,13,
2008,22.8,,13,
2009,22.5,,13,
2010,22.1,,13,
2011,21.7,,13,
2012,21.5,,13,
2013,21.2,,13,
2014,21.2,,13,
2015,21.1312094587,,13,
2016,21.0177749181,,13,
2005,19.8,,15,
2006,19.2,,15,
2007,18.6,,15,
2008,17.9,,15,
2009,17.3,,15,
2010,16.6,,15,
2011,16.0,,15,
2012,15.7,,15,
2013,15.4,,15,
2014,15.2,,15,
2015,15.2827935584,,15,
2016,15.3911891614,,15,
2005,16.5,,17,
2006,16.0,,17,
2007,15.5,,17,
2008,14.9,,17,
2009,14.4,,17,
2010,13.9,,17,
2011,13.3,,17,
2012,13.0,,17,
2013,12.8,,17,
2014,12.3,,17,
2015,12.6637647593,,17,
2016,12.3318997717,,17,
2005,24.9,,18,
2006,24.4,,18,
2007,23.8,,18,
2008,23.2,,18,
2009,22.7,,18,
2010,22.1,,18,
2011,21.5,,18,
2012,21.1,,18,
2013,20.8,,18,
2014,20.5,,18,
2015,20.3791319958,,18,
2016,20.1301623864,,18,
2005,24.9,,19,
2006,24.4,,19,
2007,23.9,,19,
2008,23.4,,19,
2009,22.9,,19,
2010,22.4,,19,
2011,21.8,,19,
2012,21.5,,19,
2013,21.1,,19,
2014,20.9,,19,
2015,20.9792229335,,19,
2016,20.545173986,,19,
2005,22.6,,20,
2006,22.1,,20,
2007,21.6,,20,
2008,21.1,,20,
2009,20.6,,20,
2010,20.1,,20,
2011,19.6,,20,
2012,19.3,,20,
2013,19.4,,20,
2014,19.5,,20,
2015,19.4613391728,,20,
2016,19.220988135,,20,
2005,28.2,,23,
2006,27.6,,23,
2007,27.1,,23,
2008,26.6,,23,
2009,26.0,,23,
2010,25.5,,23,
2011,25.0,,23,
2012,24.7,,23,
2013,24.3,,23,
2014,24.3,,23,
2015,24.3808435296,,23,
2016,24.003804556,,23,
2005,15.4,,25,
2006,15.1,,25,
2007,14.9,,25,
2008,14.6,,25,
2009,14.4,,25,
2010,14.2,,25,
2011,13.9,,25,
2012,13.7,,25,
2013,13.5,,25,
2014,13.2,,25,
2015,13.35956251,,25,
2016,13.8189869859,,25,
2005,49.4,,27,
2006,48.2,,27,
2007,47.1,,27,
2008,46.0,,27,
2009,45.0,,27,
2010,43.9,,27,
2011,42.7,,27,
2012,41.9,,27,
2013,42.8,,27,
2014,43.3,,27,
2015,42.0678321545,,27,
2016,40.9065380109,,27,
2005,20.0,,41,
2006,19.7,,41,
2007,19.4,,41,
2008,19.1,,41,
2009,18.7,,41,
2010,18.4,,41,
2011,18.0,,41,
2012,17.7,,41,
2013,17.5,,41,
2014,17.5,,41,
2015,17.3362526377,,41,
2016,17.2598968438,,41,
2005,35.2,,44,
2006,34.7,,44,
2007,34.2,,44,
2008,33.7,,44,
2009,33.2,,44,
2010,32.7,,44,
2011,32.0,,44,
2012,31.6,,44,
2013,31.5,,44,
2014,32.4,,44,
2015,32.8567153417,,44,
2016,32.8052,,44,
2005,21.0,,47,
2006,20.6,,47,
2007,20.2,,47,
2008,19.8,,47,
2009,19.4,,47,
2010,19.0,,47,
2011,18.7,,47,
2012,18.4,,47,
2013,18.3,,47,
2014,18.2,,47,
2015,18.1251928396,,47,
2016,17.6539544685,,47,
2005,29.1,,50,
2006,28.6,,50,
2007,28.0,,50,
2008,27.5,,50,
2009,26.9,,50,
2010,26.4,,50,
2011,25.8,,50,
2012,25.4,,50,
2013,24.9,,50,
2014,25.4,,50,
2015,24.1336406403,,50,
2016,22.5413468211,,50,
2005,25.5,,52,
2006,25.1,,52,
2007,24.8,,52,
2008,24.4,,52,
2009,24.1,,52,
2010,23.7,,52,
2011,23.4,,52,
2012,23.2,,52,
2013,22.8,,52,
2014,22.9,,52,
2015,22.7999659307,,52,
2016,21.9795953421,,52,
2005,15.0,,54,
2006,14.7,,54,
2007,14.4,,54,
2008,14.1,,54,
2009,13.8,,54,
2010,13.6,,54,
2011,13.2,,54,
2012,13.0,,54,
2013,12.8,,54,
2014,12.7,,54,
2015,12.8044505565,,54,
2016,13.0315198921,,54,
2005,15.0,,63,
2006,14.6,,63,
2007,14.2,,63,
2008,13.8,,63,
2009,13.4,,63,
2010,13.0,,63,
2011,12.4,,63,
2012,12.1,,63,
2013,11.8,,63,
2014,11.8,,63,
2015,11.966739741,,63,
2016,12.1990824467,,63,
2005,16.1,,66,
2006,15.7,,66,
2007,15.4,,66,
2008,15.0,,66,
2009,14.7,,66,
2010,14.4,,66,
2011,13.7,,66,
2012,13.3,,66,
2013,13.3,,66,
2014,12.8,,66,
2015,13.0076209963,,66,
2016,13.0097399499,,66,
2005,17.1,,68,
2006,16.6,,68,
2007,16.1,,68,
2008,15.6,,68,
2009,15.1,,68,
2010,14.6,,68,
2011,14.1,,68,
2012,13.8,,68,
2013,14.0,,68,
2014,13.9,,68,
2015,13.5268564038,,68,
2016,12.925530206,,68,
2005,25.5,,70,
2006,25.1,,70,
2007,24.8,,70,
2008,24.4,,70,
2009,24.0,,70,
2010,23.7,,70,
2011,23.4,,70,
2012,23.2,,70,
2013,23.1,,70,
2014,23.3,,70,
2015,23.1302691076,,70,
2016,23.0980461925,,70,
2005,20.9,,73,
2006,20.6,,73,
2007,20.4,,73,
2008,20.1,,73,
2009,19.8,,73,
2010,19.6,,73,
2011,19.0,,73,
2012,18.6,,73,
2013,18.5,,73,
2014,18.5,,73,
2015,18.4036946351,,73,
2016,18.3568556827,,73,
2005,15.1,,76,
2006,14.7,,76,
2007,14.4,,76,
2008,14.1,,76,
2009,13.7,,76,
2010,13.4,,76,
2011,12.9,,76,
2012,12.6,,76,
2013,12.2,,76,
2014,12.1,,76,
2015,12.2569481622,,76,
2016,11.5030722044,,76,
2005,30.5,,81,
2006,29.7,,81,
2007,28.8,,81,
2008,28.0,,81,
2009,27.2,,81,
2010,26.4,,81,
2011,25.8,,81,
2012,25.4,,81,
2013,24.8,,81,
2014,24.8,,81,
2015,24.9765153141,,81,
2016,24.2958,,81,
2005,29.4,,85,
2006,29.0,,85,
2007,28.6,,85,
2008,28.1,,85,
2009,27.7,,85,
2010,27.2,,85,
2011,26.8,,85,
2012,26.5,,85,
2013,26.0,,85,
2014,26.2,,85,
2015,26.071759457,,85,
2016,25.2372266296,,85,
2005,22.3,,86,
2006,21.9,,86,
2007,21.5,,86,
2008,21.1,,86,
2009,20.7,,86,
2010,20.3,,86,
2011,19.8,,86,
2012,19.5,,86,
2013,19.5,,86,
2014,19.4,,86,
2015,19.0693463391,,86,
2016,18.7096358815,,86,
2005,17.7,,88,
2006,17.3,,88,
2007,16.9,,88,
2008,16.5,,88,
2009,16.1,,88,
2010,15.7,,88,
2011,15.3,,88,
2012,15.3,,88,
2013,13.5,,88,
2014,14.9,,88,
2015,14.9024619445,,88,
2016,15.4088,,88,
2005,47.1,,91,
2006,47.1,,91,
2007,47.0,,91,
2008,47.0,,91,
2009,46.9,,91,
2010,46.9,,91,
2011,46.4,,91,
2012,45.8,,91,
2013,46.7,,91,
2014,49.0,,91,
2015,49.6581265263,,91,
2016,48.1297798825,,91,
2005,40.1,,94,
2006,39.6,,94,
2007,39.1,,94,
2008,38.5,,94,
2009,37.9,,94,
2010,37.3,,94,
2011,36.7,,94,
2012,36.6,,94,
2013,37.5,,94,
2014,39.5,,94,
2015,40.0680508921,,94,
2016,41.0648,,94,
2005,39.5,,95,
2006,38.7,,95,
2007,38.0,,95,
2008,37.2,,95,
2009,36.4,,95,
2010,35.6,,95,
2011,35.0,,95,
2012,34.5,,95,
2013,35.3,,95,
2014,37.6,,95,
2015,38.0693607322,,95,
2016,36.7224,,95,
2005,46.3,,97,
2006,45.4,,97,
2007,44.5,,97,
2008,43.7,,97,
2009,42.9,,97,
2010,42.1,,97,
2011,41.9,,97,
2012,41.8,,97,
2013,42.7,,97,
2014,45.1,,97,
2015,45.7616925748,,97,
2016,47.3262,,97,
2005,41.6,,99,
2006,40.6,,99,
2007,39.6,,99,
2008,38.5,,99,
2009,37.5,,99,
2010,36.5,,99,
2011,36.1,,99,
2012,35.9,,99,
2013,36.9,,99,
2014,39.3,,99,
2015,39.7927856964,,99,
2016,40.4754928482,,99,