TIME,OBS,COUNTRY
2005,9.8657162541,CO
2006,9.3862411645,CO
2007,9.5508936867,CO
2008,9.2081520379,CO
2009,8.4827265907,CO
2010,7.7463960393,CO
2011,7.8061725112,CO
2012,7.7256643052,CO
2013,7.2582664855,CO
2014,7.2421641607,CO
2015,7.0106006212,CO
2016,7.0144443192,CO
2017,6.9407221518,CO
2018,6.96,CO
2019,6.98,CO