TIME,OBS,COUNTRY,DES_GEO_DEPTOS,DES_GEO_REGIONES
2006,17.61,,54,
2007,17.19,,54,
2013,15.05,,54,
2011,14.69,,63,
2012,14.03,,63,
2013,13.36,,63,
2014,13.35,,63,
2015,13.47,,63,
2016,28.54,,63,
2005,22.69,,66,
2006,21.50,,66,
2007,20.30,,66,
2008,19.53,,66,
2009,18.77,,66,
2012,28.41,,70,
2013,28.59,,70,
2014,28.75,,70,
2015,28.37,,70,
2016,32.48,,70,
2005,25.78,,73,
2006,25.24,,73,
2007,24.69,,73,
2008,24.05,,73,
2009,23.41,,73,
2010,22.77,,73,
2011,22.14,,73,
2012,21.50,,73,
2013,21.48,,73,
2014,21.51,,73,
2015,21.02,,73,
2016,26.18,,73,
2005,19.77,,76,
2006,19.05,,76,
2007,18.33,,76,
2008,17.79,,76,
2009,17.24,,76,
2010,16.70,,76,
2011,16.16,,76,
2012,15.62,,76,
2013,14.85,,76,
2014,14.71,,76,
2015,14.43,,76,
2016,20.73,,76,
2005,36.55,,81,
2006,35.74,,81,
2007,34.93,,81,
2008,34.33,,81,
2009,33.72,,81,
2010,33.11,,81,
2011,32.51,,81,
2012,31.90,,81,
2013,31.40,,81,
2014,31.34,,81,
2015,31.47,,81,
2016,18.1,,81,
2005,36.96,,85,
2005,20.38,,08,
2006,20.06,,08,
2007,19.75,,08,
2008,19.45,,08,
2009,19.14,,08,
2010,18.83,,08,
2011,18.53,,08,
2012,18.22,,08,
2013,18.58,,08,
2014,18.58,,08,
2015,18.36,,08,
2016,12.59,,08,
2005,19.30,,11,
2006,18.40,,11,
2007,17.50,,11,
2008,16.93,,11,
2009,16.36,,11,
2010,15.80,,11,
2011,15.23,,11,
2012,14.66,,11,
2013,13.56,,11,
2014,13.58,,11,
2015,13.14,,11,
2016,25.75,,11,
2005,29.38,,13,
2006,28.82,,13,
2007,28.25,,13,
2008,27.88,,13,
2009,27.51,,13,
2010,27.14,,13,
2011,26.77,,13,
2012,26.40,,13,
2013,26.14,,13,
2014,26.11,,13,
2015,25.79,,13,
2016,18.22,,13,
2005,24.70,,15,
2006,23.88,,15,
2007,23.05,,15,
2008,22.39,,15,
2009,21.73,,15,
2010,21.08,,15,
2011,20.42,,15,
2012,19.76,,15,
2013,18.92,,15,
2014,18.77,,15,
2015,18.41,,15,
2016,13.5,,15,
2005,19.20,,17,
2006,18.35,,17,
2007,17.50,,17,
2008,16.92,,17,
2009,16.35,,17,
2010,15.78,,17,
2011,15.21,,17,
2012,14.64,,17,
2013,14.31,,17,
2014,13.85,,17,
2015,13.93,,17,
2016,27.35,,17,
2005,33.52,,18,
2006,32.55,,18,
2007,31.59,,18,
2008,30.95,,18,
2013,27.86,,18,
2014,27.57,,18,
2015,27.32,,18,
2005,18.82,,25,
2006,18.43,,25,
2007,18.05,,25,
2008,17.76,,25,
2009,17.48,,25,
2010,17.19,,25,
2011,16.90,,25,
2012,16.62,,25,
2013,16.42,,25,
2014,16.24,,25,
2015,16.17,,25,
2016,39.86,,25,
2005,62.48,,27,
2006,60.53,,27,
2007,58.59,,27,
2008,57.24,,27,
2009,55.88,,27,
2010,54.53,,27,
2011,53.18,,27,
2012,51.83,,27,
2013,51.52,,27,
2005,23.71,,41,
2006,23.15,,41,
2007,22.58,,41,
2008,22.11,,41,
2009,21.63,,41,
2010,21.16,,41,
2011,20.68,,41,
2012,20.20,,41,
2013,19.76,,41,
2014,19.76,,41,
2015,19.34,,41,
2016,30.92,,41,
2005,43.33,,44,
2006,42.80,,44,
2007,42.26,,44,
2008,41.60,,44,
2009,40.93,,44,
2010,40.26,,44,
2011,39.60,,44,
2012,38.93,,44,
2013,39.01,,44,
2014,39.68,,44,
2015,39.69,,44,
2016,22.04,,44,
2005,25.03,,47,
2006,24.55,,47,
2007,24.07,,47,
2008,23.74,,47,
2009,23.41,,47,
2010,23.07,,47,
2011,22.74,,47,
2012,22.41,,47,
2013,22.67,,47,
2014,22.52,,47,
2009,30.30,,18,
2010,29.65,,18,
2011,29.00,,18,
2012,28.36,,18,
2016,26.25,,18,
2005,32.42,,19,
2006,31.58,,19,
2007,36.91,,50,
2008,36.28,,50,
2009,35.65,,50,
2010,35.02,,50,
2011,34.39,,50,
2012,33.76,,50,
2013,33.10,,50,
2014,33.46,,50,
2015,32.53,,50,
2016,14.9,,50,
2005,32.98,,52,
2006,32.34,,52,
2007,31.70,,52,
2008,31.35,,52,
2009,31.00,,52,
2010,30.66,,52,
2011,30.31,,52,
2012,29.96,,52,
2013,29.37,,52,
2014,29.40,,52,
2015,29.04,,52,
2005,18.03,,54,
2016,15.33,,52,
2006,18.36,,63,
2007,17.31,,63,
2008,16.65,,63,
2009,16.00,,63,
2014,15.82,,66,
2015,15.4,,66,
2016,21.02,,66,
2005,19.60,,68,
2006,18.94,,68,
2007,18.28,,68,
2008,17.78,,68,
2009,17.28,,68,
2012,15.78,,68,
2013,15.91,,68,
2014,15.92,,68,
2015,15.56,,68,
2016,30.96,,68,
2005,30.15,,70,
2006,29.87,,70,
2007,29.60,,70,
2008,29.36,,70,
2009,29.12,,70,
2005,25.46,CO,,
2006,24.39,CO,,
2007,23.31,CO,,
2008,22.60,CO,,
2009,21.89,CO,,
2010,21.17,CO,,
2011,20.46,CO,,
2012,19.75,CO,,
2013,19.25,CO,,
2014,19.20,CO,,
2015,18.73,CO,,
2016,18.18,CO,,
2005,22.62,,05,
2006,21.77,,05,
2007,20.92,,05,
2008,20.24,,05,
2009,19.57,,05,
2010,18.89,,05,
2011,18.22,,05,
2012,17.54,,05,
2013,17.35,,05,
2014,17.36,,05,
2015,16.81,,05,
2016,16.73,,05,
2007,30.74,,19,
2008,30.11,,19,
2009,29.49,,19,
2010,28.87,,19,
2011,28.25,,19,
2012,27.63,,19,
2013,27.24,,19,
2014,27.06,,19,
2015,26.71,,19,
2016,30.4,,19,
2005,26.97,,20,
2006,26.27,,20,
2007,25.57,,20,
2008,25.05,,20,
2009,24.53,,20,
2010,24.01,,20,
2011,23.50,,20,
2012,22.98,,20,
2013,22.42,,20,
2014,22.51,,20,
2015,22.06,,20,
2016,16.65,,20,
2005,35.00,,23,
2006,34.42,,23,
2007,33.84,,23,
2008,33.35,,23,
2009,32.87,,23,
2010,32.38,,23,
2011,31.89,,23,
2012,31.41,,23,
2013,30.92,,23,
2014,30.75,,23,
2015,30.92,,23,
2016,19.18,,23,
2014,51.91,,27,
2015,51.94,,27,
2016,50.42,,27,
2015,22.39,,47,
2016,28.1,,47,
2005,38.48,,50,
2006,37.69,,50,
2009,16.48,,54,
2010,16.13,,54,
2011,15.77,,54,
2012,15.41,,54,
2014,15.03,,54,
2015,14.75,,54,
2016,13.36,,54,
2005,19.41,,63,
2008,16.84,,54,
2010,15.34,,63,
2010,18.00,,66,
2011,17.23,,66,
2012,16.47,,66,
2013,15.97,,66,
2010,16.78,,68,
2011,16.28,,68,
2010,28.88,,70,
2011,28.64,,70,
2006,36.45,,85,
2007,35.94,,85,
2008,35.49,,85,
2009,35.04,,85,
2010,34.59,,85,
2011,34.13,,85,
2012,33.68,,85,
2013,32.87,,85,
2014,32.81,,85,
2015,32.49,,85,
2016,22.3,,85,
2005,31.13,,86,
2006,30.27,,86,
2007,29.41,,86,
2008,28.90,,86,
2009,28.40,,86,
2010,27.89,,86,
2011,27.38,,86,
2012,26.88,,86,
2013,26.88,,86,
2014,26.96,,86,
2015,26.46,,86,
2016,15.02,,86,
2005,22.83,,88,
2012,20.48,,88,
2013,19.47,,88,
2014,21.04,,88,
2015,20.75,,88,
2016,13.87,,88,
2006,22.38,,88,
2007,21.93,,88,
2008,21.64,,88,
2009,21.35,,88,
2010,21.06,,88,
2011,20.77,,88,
2005,51.13,,90,
2006,50.22,,90,
2007,49.31,,90,
2008,48.86,,90,
2009,48.41,,90,
2010,47.96,,90,
2011,47.51,,90,
2012,47.06,,90,
2013,48.24,,90,
2014,49.82,,90,
2015,50.31,,90,
2016,50.42,,90,