TIME,OBS,COUNTRY,DES_GEO_DEPTOS,DES_GEO_REGIONES,SEXO
2014,40.30961,,05,,
2007,2.332371,,25,,
2007,10.5904,,27,,
2007,21.05595,,41,,
2008,44.45975,,86,,
2007,21.05835,,44,,
2007,24.36176,,47,,
2007,34.8424,,50,,
2007,12.34092,,52,,
2008,13.85675,,88,,
2007,32.72582,,54,,
2007,52.54073,,63,,
2007,24.87223,,66,,
2008,152.1767,,91,,
2007,21.42522,,68,,
2008,21.57265,,94,,
2007,9.019848,,70,,
2008,27.94188,,95,,
2007,29.68488,,73,,
2007,8.636879,,76,,
2007,44.05083,,81,,
2008,39.36136,,97,,
2007,47.48878,,85,,
2007,42.06079,,86,,
2007,22.34231,,88,,
2008,52.89781,,99,,
2007,107.9541,,91,,
2007,30.16674,,94,,
2007,48.63813,,95,,
2007,37.31529,,97,,
2009,31.52682,,05,,
2007,54.34321,,99,,
2008,35.01709,,05,,
2009,30.37411,,08,,
2008,31.0845,,08,,
2008,14.03204,,11,,
2009,11.54334,,11,,
2009,13.78655,,13,,
2008,13.47097,,13,,
2009,8.45507,,15,,
2008,8.786845,,15,,
2008,26.88577,,17,,
2009,22.12156,,17,,
2008,39.40571,,18,,
2008,10.403,,19,,
2008,18.06094,,20,,
2008,13.35145,,23,,
2008,7.799756,,25,,
2008,45.60305,,27,,
2009,23.97805,,18,,
2008,27.69287,,41,,
2008,36.80438,,44,,
2008,19.99773,,47,,
2008,43.08663,,50,,
2009,13.60666,,19,,
2009,19.28992,,20,,
2008,10.81489,,52,,
2008,17.40038,,54,,
2008,61.81254,,63,,
2009,19.69422,,23,,
2009,10.01169,,25,,
2008,31.28518,,66,,
2008,22.81964,,68,,
2009,70.39894,,27,,
2007,11.72591,,19,,
2008,7.799586,,70,,
2008,22.48164,,73,,
2009,31.15516,,41,,
2008,30.95347,,76,,
2008,32.71953,,81,,
2008,25.84301,,85,,
2010,53.76468,,27,,
2010,23.81856,,41,,
2010,39.45086,,44,,
2010,15.48064,,47,,
2010,41.22073,,50,,
2010,10.18566,,52,,
2010,27.73602,,54,,
2010,54.57899,,63,,
2010,48.10202,,66,,
2010,24.67179,,68,,
2010,8.881608,,70,,
2010,26.73641,,73,,
2010,42.54808,,76,,
2010,24.23841,,81,,
2010,30.71055,,85,,
2010,38.33262,,86,,
2010,12.27496,,88,,
2010,147.1875,,91,,
2010,31.3087,,94,,
2010,28.07167,,95,,
2010,16.85366,,97,,
2010,45.54735,,99,,
2011,39.27531,,05,,
2011,30.88636,,08,,
2011,11.0876,,11,,
2011,11.83502,,13,,
2011,7.24749,,15,,
2011,20.81066,,17,,
2011,29.1013,,18,,
2011,19.16204,,19,,
2011,24.6156,,20,,
2011,14.12114,,23,,
2011,12.27547,,25,,
2011,38.47594,,27,,
2011,33.43708,,41,,
2009,30.84379,,44,,
2009,14.94962,,47,,
2009,34.6943,,50,,
2009,6.792383,,52,,
2009,19.81614,,54,,
2009,60.37399,,63,,
2009,36.31852,,66,,
2009,22.55001,,68,,
2009,5.481254,,70,,
2009,26.67526,,73,,
2009,26.5547,,76,,
2009,33.12789,,81,,
2009,30.67149,,85,,
2009,38.73795,,86,,
2009,17.8731,,88,,
2009,85.71388,,91,,
2009,7.956504,,94,,
2009,37.34314,,95,,
2009,60.83613,,97,,
2009,30.61011,,99,,
2010,37.00954,,05,,
2010,39.05879,,08,,
2010,12.67012,,11,,
2010,12.02013,,13,,
2010,7.257512,,15,,
2010,22.38481,,17,,
2010,32.82957,,18,,
2010,18.57299,,19,,
2010,28.55812,,20,,
2010,17.69035,,23,,
2010,12.07088,,25,,
2011,22.67785,,44,,
2011,12.453,,47,,
2011,32.96572,,50,,
2011,10.48154,,52,,
2007,10.44952,,23,,
2011,27.95462,,54,,
2007,20.13847,,20,,
2013,30.62194,,54,,
2013,33.99115,,63,,
2013,10.21326,,15,,
2013,27.84227,,17,,
2013,52.26953,,66,,
2013,25.87053,,68,,
2013,7.785018,,70,,
2013,35.23192,,18,,
2013,30.42553,,73,,
2013,19.85631,,19,,
2013,24.20179,,20,,
2013,35.99175,,76,,
2013,43.66012,,81,,
2013,15.6206,,23,,
2013,31.68236,,85,,
2013,12.77786,,25,,
2013,24.62513,,86,,
2013,19.95557,,88,,
2013,57.51381,,27,,
2013,107.3235,,91,,
2013,22.38639,,94,,
2013,32.14018,,41,,
2013,27.79476,,95,,
2013,25.69073,,97,,
2013,24.79037,,99,,
2012,35.64281,,08,,
2012,13.43222,,11,,
2012,15.64989,,13,,
2015,36.12416,,99,,
2012,7.709658,,15,,
2007,19.58671,,,,F
2012,24.02752,,17,,
2007,12.48884,,,,M
2012,36.56029,,18,,
2008,28.41992,,,,F
2012,19.06677,,19,,
2012,22.69097,,20,,
2012,14.8839,,23,,
2008,18.25509,,,,M
2012,12.74621,,25,,
2009,27.04503,,,,F
2012,57.25549,,27,,
2012,30.48706,,41,,
2012,25.72805,,44,,
2009,17.27762,,,,M
2012,16.09641,,47,,
2012,39.58955,,50,,
2012,11.54216,,52,,
2012,27.78667,,54,,
2012,43.53802,,63,,
2012,50.2185,,66,,
2012,22.99615,,68,,
2012,7.136118,,70,,
2012,29.58372,,73,,
2012,45.92826,,76,,
2012,26.02883,,81,,
2012,32.55536,,85,,
2012,28.50738,,86,,
2012,17.44007,,88,,
2012,92.2672,,91,,
2012,25.26912,,94,,
2012,30.07915,,95,,
2012,28.30723,,97,,
2012,17.93266,,99,,
2013,39.69847,,05,,
2013,38.24529,,08,,
2013,13.1607,,11,,
2013,17.51981,,13,,
2010,31.43324,,,,F
2010,20.73088,,,,M
2011,30.08627,,,,F
2011,18.76611,,,,M
2012,32.61718,,,,F
2012,20.02566,,,,M
2013,33.0811,,,,F
2013,19.43241,,,,M
2014,34.88915,,,,F
2014,20.45991,,,,M
2015,35.40384,,,,F
2015,19.95597,,,,M
2007,33.87314,,18,,
2007,15.99247,CO,,,
2008,23.27274,CO,,,
2009,22.09929,CO,,,
2010,26.0143,CO,,,
2011,24.35465,CO,,,
2012,26.24199,CO,,,
2013,26.17087,CO,,,
2014,27.58394,CO,,,
2015,27.58311,CO,,,
2007,2.210848,,05,,
2007,31.36401,,08,,
2007,13.957,,11,,
2007,14.34275,,13,,
2007,5.313998,,15,,
2007,21.28336,,17,,
2014,39.18581,,08,,
2014,14.01597,,11,,
2014,20.21221,,13,,
2014,9.257697,,15,,
2014,31.74307,,17,,
2014,37.11236,,18,,
2014,19.89782,,19,,
2014,27.05274,,20,,
2014,15.97594,,23,,
2014,14.02015,,25,,
2014,53.72099,,27,,
2014,28.67065,,41,,
2014,26.34004,,44,,
2014,20.52081,,47,,
2014,44.95945,,50,,
2014,8.706024,,52,,
2014,33.25799,,54,,
2014,47.49926,,63,,
2014,51.33991,,66,,
2014,27.83978,,68,,
2013,25.59934,,44,,
2013,17.64422,,47,,
2014,8.420283,,70,,
2014,30.05137,,73,,
2014,41.60394,,76,,
2013,44.33051,,50,,
2013,9.401909,,52,,
2014,40.47069,,81,,
2014,34.54784,,85,,
2014,27.27001,,86,,
2014,21.1079,,88,,
2014,72.95591,,91,,
2014,29.38368,,94,,
2014,26.48644,,95,,
2014,48.56614,,97,,
2014,22.77256,,99,,
2015,40.25526,,05,,
2015,40.75806,,08,,
2015,13.97424,,11,,
2015,18.11973,,13,,
2015,8.226216,,15,,
2015,32.59139,,17,,
2015,32.03236,,18,,
2015,18.19937,,19,,
2015,27.21379,,20,,
2015,13.45309,,23,,
2015,14.44008,,25,,
2015,51.39044,,27,,
2015,30.74187,,41,,
2015,25.37072,,44,,
2011,52.64539,,63,,
2015,21.98723,,47,,
2015,44.72951,,50,,
2015,10.20509,,52,,
2011,46.96309,,66,,
2011,25.33896,,68,,
2015,33.19106,,54,,
2011,8.061669,,70,,
2015,37.85534,,63,,
2015,54.3094,,66,,
2011,26.36729,,73,,
2011,39.67327,,76,,
2011,23.9455,,81,,
2011,24.41715,,85,,
2015,31.39132,,68,,
2015,7.28114,,70,,
2011,33.07059,,86,,
2015,33.65827,,73,,
2011,10.82178,,88,,
2015,40.68332,,76,,
2015,48.41507,,81,,
2015,27.4911,,85,,
2015,28.67869,,86,,
2011,93.33224,,91,,
2015,9.157269,,88,,
2011,15.40476,,94,,
2011,21.93694,,95,,
2015,80.00735,,91,,
2011,30.9782,,97,,
2011,21.44542,,99,,
2015,24.10684,,94,,
2015,32.41491,,95,,
2012,38.5418,,05,,
2015,29.77213,,97,,