TIME,OBS,COUNTRY,EDAD5
2002,1.668571056,CO,
2003,-0.596349097,CO,
2004,5.177088805,CO,
2005,2.280490656,CO,
2006,7.669120309,CO,
2007,5.581325333,CO,
2008,1.553172345,CO,
2009,-3.748568045,CO,
2010,-0.320398097,CO,
2011,2.297137021,CO,
2012,0.641035382,CO,
2013,3.121317561,CO,
2014,2.176331073,CO,
2015,0.648958879,CO,